{"filesize": "", "keyword": "", "list": [{"ID": "b2b44368780047af93fda1a1b224ab62", "EPS_NAME": "广州莱丽奇生物科技有限公司", "PRODUCT_SN": "粤妆20180142", "CITY_CODE": null, "XK_COMPLETE_DATE": {"date": 13, "day": 1, "hours": 0, "minutes": 0, "month": 3, "nanos": 0, "seconds": 0, "time": 1586707200000, "timezoneOffset": -480, "year": 120}, "XK_DATE": "2023-06-21", "QF_MANAGER_NAME": "广东省药品监督管理局", "BUSINESS_LICENSE_NUMBER": "91440101050645237K", "XC_DATE": "2020-04-13", "NUM_": 736}, {"ID": "37b9c5287bf84534abc6023d8acb8937", "EPS_NAME": "广州菲美生物科技有限公司", "PRODUCT_SN": "粤妆20161655", "CITY_CODE": null, "XK_COMPLETE_DATE": {"date": 13, "day": 1, "hours": 0, "minutes": 0, "month": 3, "nanos": 0, "seconds": 0, "time": 1586707200000, "timezoneOffset": -480, "year": 120}, "XK_DATE": "2021-12-19", "QF_MANAGER_NAME": "广东省药品监督管理局", "BUSINESS_LICENSE_NUMBER": "91440101MA59EHK47Q", "XC_DATE": "2020-04-13", "NUM_": 737}, {"ID": "23855b6486454b40bcaf2135a0700d5a", "EPS_NAME": "广州市白云区卡丝蓝化妆品厂", "PRODUCT_SN": "粤妆20161126", "CITY_CODE": null, "XK_COMPLETE_DATE": {"date": 13, "day": 1, "hours": 0, "minutes": 0, "month": 3, "nanos": 0, "seconds": 0, "time": 1586707200000, "timezoneOffset": -480, "year": 120}, "XK_DATE": "2021-11-09", "QF_MANAGER_NAME": "广东省药品监督管理局", "BUSINESS_LICENSE_NUMBER": "91440111576027628D", "XC_DATE": "2020-04-13", "NUM_": 738}, {"ID": "d2c48a8c6737439f97aa4dc38348ad47", "EPS_NAME": "山东千黛化妆品有限公司", "PRODUCT_SN": "鲁妆20200008", "CITY_CODE": null, "XK_COMPLETE_DATE": {"date": 13, "day": 1, "hours": 0, "minutes": 0, "month": 3, "nanos": 0, "seconds": 0, "time": 1586707200000, "timezoneOffset": -480, "year": 120}, "XK_DATE": "2025-04-12", "QF_MANAGER_NAME": "山东省食品药品监督管理局", "BUSINESS_LICENSE_NUMBER": "91370832MA3PPFH51H", "XC_DATE": "2020-04-13", "NUM_": 739}, {"ID": "f211bc3808a2499da794eeaeb7729bed", "EPS_NAME": "江西川卉草本生物科技有限公司", "PRODUCT_SN": "赣妆20200003", "CITY_CODE": "99", "XK_COMPLETE_DATE": {"date": 13, "day": 1, "hours": 0, "minutes": 0, "month": 3, "nanos": 0, "seconds": 0, "time": 1586707200000, "timezoneOffset": -480, "year": 120}, "XK_DATE": "2025-04-13", "QF_MANAGER_NAME": "江西省药品监督管理局", "BUSINESS_LICENSE_NUMBER": "91360805MA38NLYL06", "XC_DATE": "2020-04-13", "NUM_": 740}, {"ID": "7afdfa6de55a4019818b7fb49460e19c", "EPS_NAME": "江西齐草堂生物科技有限公司", "PRODUCT_SN": "赣妆20200002", "CITY_CODE": "98", "XK_COMPLETE_DATE": {"date": 13, "day": 1, "hours": 0, "minutes": 0, "month": 3, "nanos": 0, "seconds": 0, "time": 1586707200000, "timezoneOffset": -480, "year": 120}, "XK_DATE": "2025-04-13", "QF_MANAGER_NAME": "江西省药品监督管理局", "BUSINESS_LICENSE_NUMBER": "91360982MA36W7K5X3", "XC_DATE": "2020-04-13", "NUM_": 741}, {"ID": "b81e4f82b4d34720b9eafcaf98d8e990", "EPS_NAME": "江西御美化妆品有限公司", "PRODUCT_SN": "赣妆20170018", "CITY_CODE": "99", "XK_COMPLETE_DATE": {"date": 13, "day": 1, "hours": 0, "minutes": 0, "month": 3, "nanos": 0, "seconds": 0, "time": 1586707200000, "timezoneOffset": -480, "year": 120}, "XK_DATE": "2022-12-12", "QF_MANAGER_NAME": "江西省药品监督管理局", "BUSINESS_LICENSE_NUMBER": "91360803MA35MXK044", "XC_DATE": "2020-04-13", "NUM_": 742}, {"ID": "9c0049652c4f4265a0edfd04a2fe92dd", "EPS_NAME": "江门市新时代外用制剂有限公司", "PRODUCT_SN": "粤妆20160508", "CITY_CODE": null, "XK_COMPLETE_DATE": {"date": 11, "day": 6, "hours": 0, "minutes": 0, "month": 3, "nanos": 0, "seconds": 0, "time": 1586534400000, "timezoneOffset": -480, "year": 120}, "XK_DATE": "2021-07-31", "QF_MANAGER_NAME": "广东省药品监督管理局", "BUSINESS_LICENSE_NUMBER": "91440704799365691F", "XC_DATE": "2020-04-11", "NUM_": 743}, {"ID": "98187585f016448ca9624a736ebe7dfc", "EPS_NAME": "义乌市美晟科技有限公司", "PRODUCT_SN": "浙妆20200004", "CITY_CODE": null, "XK_COMPLETE_DATE": {"date": 10, "day": 5, "hours": 0, "minutes": 0, "month": 3, "nanos": 0, "seconds": 0, "time": 1586448000000, "timezoneOffset": -480, "year": 120}, "XK_DATE": "2025-01-18", "QF_MANAGER_NAME": "浙江省药品监督管理局", "BUSINESS_LICENSE_NUMBER": "91330782MA2DF6DQ6N", "XC_DATE": "2020-04-10", "NUM_": 744}, {"ID": "f8f938b56a4c4b1b99ffb8e6ed3ab505", "EPS_NAME": "广州市丽美康生物科技有限公司", "PRODUCT_SN": "粤妆20190032", "CITY_CODE": null, "XK_COMPLETE_DATE": {"date": 10, "day": 5, "hours": 0, "minutes": 0, "month": 3, "nanos": 0, "seconds": 0, "time": 1586448000000, "timezoneOffset": -480, "year": 120}, "XK_DATE": "2024-01-31", "QF_MANAGER_NAME": "广东省药品监督管理局", "BUSINESS_LICENSE_NUMBER": "91440101MA5CBW784F", "XC_DATE": "2020-04-10", "NUM_": 745}, {"ID": "c1ccfe6d4a6a415db24b28ed70e9a0aa", "EPS_NAME": "广州雅泉日用品有限公司", "PRODUCT_SN": "粤妆20170187", "CITY_CODE": null, "XK_COMPLETE_DATE": {"date": 10, "day": 5, "hours": 0, "minutes": 0, "month": 3, "nanos": 0, "seconds": 0, "time": 1586448000000, "timezoneOffset": -480, "year": 120}, "XK_DATE": "2022-02-03", "QF_MANAGER_NAME": "广东省药品监督管理局", "BUSINESS_LICENSE_NUMBER": "914401116951559485", "XC_DATE": "2020-04-10", "NUM_": 746}, {"ID": "42417a355d4c4c5e9b975255a80ce3d4", "EPS_NAME": "广州有美化妆品有限公司", "PRODUCT_SN": "粤妆20160394", "CITY_CODE": null, "XK_COMPLETE_DATE": {"date": 10, "day": 5, "hours": 0, "minutes": 0, "month": 3, "nanos": 0, "seconds": 0, "time": 1586448000000, "timezoneOffset": -480, "year": 120}, "XK_DATE": "2024-05-07", "QF_MANAGER_NAME": "广东省药品监督管理局", "BUSINESS_LICENSE_NUMBER": "9144011134023871X5", "XC_DATE": "2020-04-10", "NUM_": 747}, {"ID": "0b7974027f5743a5924c40a3818b2870", "EPS_NAME": "义乌市靓美化妆品有限公司", "PRODUCT_SN": "浙妆20200014", "CITY_CODE": null, "XK_COMPLETE_DATE": {"date": 9, "day": 4, "hours": 0, "minutes": 0, "month": 3, "nanos": 0, "seconds": 0, "time": 1586361600000, "timezoneOffset": -480, "year": 120}, "XK_DATE": "2025-04-08", "QF_MANAGER_NAME": "浙江省药品监督管理局", "BUSINESS_LICENSE_NUMBER": "913307827338324373", "XC_DATE": "2020-04-09", "NUM_": 748}, {"ID": "52dff200c6e1426bbcd7aab2606c9d44", "EPS_NAME": "广东名辰堂健康产业股份有限公司", "PRODUCT_SN": "粤妆20160455", "CITY_CODE": null, "XK_COMPLETE_DATE": {"date": 9, "day": 4, "hours": 0, "minutes": 0, "month": 3, "nanos": 0, "seconds": 0, "time": 1586361600000, "timezoneOffset": -480, "year": 120}, "XK_DATE": "2024-08-21", "QF_MANAGER_NAME": "广东省药品监督管理局", "BUSINESS_LICENSE_NUMBER": "914452003248954299", "XC_DATE": "2020-04-09", "NUM_": 749}, {"ID": "14e7561b25b4439ba4ad16956d84353e", "EPS_NAME": "广东万禧生物科技有限公司", "PRODUCT_SN": "粤妆20200058", "CITY_CODE": null, "XK_COMPLETE_DATE": {"date": 8, "day": 3, "hours": 0, "minutes": 0, "month": 3, "nanos": 0, "seconds": 0, "time": 1586275200000, "timezoneOffset": -480, "year": 120}, "XK_DATE": "2025-04-07", "QF_MANAGER_NAME": "广东省药品监督管理局", "BUSINESS_LICENSE_NUMBER": "91440607MA52YUEA62", "XC_DATE": "2020-04-08", "NUM_": 750}], "orderBy": "createDate", "orderType": "desc", "pageCount": 358, "pageNumber": 50, "pageSize": 15, "property": "", "totalCount": 5369}